info:
  name: Get per-user Copilot usage details
  type: http
  seq: 2
  tags:
    - Usage Reports

http:
  method: GET
  url: "{{baseUrl}}/reports/copilot/usage/userDetail?period=D7&period=D30&period=D90&period=D180&$top=25&$skip=0"
  params:
    - name: period
      value: D7
      type: query
    - name: period
      value: D30
      type: query
    - name: period
      value: D90
      type: query
    - name: period
      value: D180
      type: query
    - name: $top
      value: "25"
      type: query
      description: Maximum number of results to return.
    - name: $skip
      value: "0"
      type: query
      description: Number of results to skip for pagination.
    - name: $filter
      value: ""
      type: query
      description: OData filter expression.
      disabled: true
  auth: inherit

settings:
  encodeUrl: true
  timeout: 0
  followRedirects: true
  maxRedirects: 5

examples:
  - name: Default
    request:
      url: "{{baseUrl}}/reports/copilot/usage/userDetail"
      method: GET
      params:
        - name: period
          value: D7
          type: query
        - name: period
          value: D30
          type: query
          disabled: true
        - name: period
          value: D90
          type: query
          disabled: true
        - name: period
          value: D180
          type: query
          disabled: true
        - name: $top
          value: "25"
          type: query
          description: Maximum number of results to return.
        - name: $skip
          value: "0"
          type: query
          description: Number of results to skip for pagination.
        - name: $filter
          value: ""
          type: query
          description: OData filter expression.
          disabled: true
    response:
      status: 200
      statusText: OK
      headers:
        - name: Content-Type
          value: application/json
      body:
        type: json
        data: |-
          {
            "value": [
              {
                "userId": "user-abc-123",
                "userPrincipalName": "jdoe@contoso.com",
                "displayName": "Jane Doe",
                "lastActivityDate": "2025-09-10",
                "wordUsed": true,
                "excelUsed": true,
                "powerPointUsed": false,
                "outlookUsed": true,
                "teamsUsed": true,
                "oneNoteUsed": false,
                "loopUsed": false,
                "copilotChatUsed": true
              },
              {
                "userId": "user-def-456",
                "userPrincipalName": "jsmith@contoso.com",
                "displayName": "John Smith",
                "lastActivityDate": "2025-09-09",
                "wordUsed": false,
                "excelUsed": true,
                "powerPointUsed": true,
                "outlookUsed": true,
                "teamsUsed": true,
                "oneNoteUsed": true,
                "loopUsed": false,
                "copilotChatUsed": false
              }
            ],
            "@odata.count": 2,
            "@odata.nextLink": "https://graph.microsoft.com/v1.0/reports/copilot/usage/userDetail?$skip=2&$top=25"
          }
  - name: Default
    request:
      url: "{{baseUrl}}/reports/copilot/usage/userDetail"
      method: GET
      params:
        - name: period
          value: D7
          type: query
        - name: period
          value: D30
          type: query
          disabled: true
        - name: period
          value: D90
          type: query
          disabled: true
        - name: period
          value: D180
          type: query
          disabled: true
        - name: $top
          value: "25"
          type: query
          description: Maximum number of results to return.
        - name: $skip
          value: "0"
          type: query
          description: Number of results to skip for pagination.
        - name: $filter
          value: ""
          type: query
          description: OData filter expression.
          disabled: true
    response:
      status: 401
      statusText: Unauthorized
      headers:
        - name: Content-Type
          value: application/json
      body:
        type: json
        data: |-
          {
            "error": {
              "code": "Unauthorized",
              "message": "Authentication token is missing, expired, or invalid.",
              "innerError": {
                "requestId": "req-err-401-001",
                "date": "2025-09-10T12:00:00Z"
              }
            }
          }
  - name: Default
    request:
      url: "{{baseUrl}}/reports/copilot/usage/userDetail"
      method: GET
      params:
        - name: period
          value: D7
          type: query
        - name: period
          value: D30
          type: query
          disabled: true
        - name: period
          value: D90
          type: query
          disabled: true
        - name: period
          value: D180
          type: query
          disabled: true
        - name: $top
          value: "25"
          type: query
          description: Maximum number of results to return.
        - name: $skip
          value: "0"
          type: query
          description: Number of results to skip for pagination.
        - name: $filter
          value: ""
          type: query
          description: OData filter expression.
          disabled: true
    response:
      status: 403
      statusText: Forbidden
      headers:
        - name: Content-Type
          value: application/json
      body:
        type: json
        data: |-
          {
            "error": {
              "code": "Forbidden",
              "message": "Insufficient privileges to complete the operation. Verify the required permissions are granted.",
              "innerError": {
                "requestId": "req-err-403-001",
                "date": "2025-09-10T12:00:00Z"
              }
            }
          }
  - name: Default
    request:
      url: "{{baseUrl}}/reports/copilot/usage/userDetail"
      method: GET
      params:
        - name: period
          value: D7
          type: query
        - name: period
          value: D30
          type: query
          disabled: true
        - name: period
          value: D90
          type: query
          disabled: true
        - name: period
          value: D180
          type: query
          disabled: true
        - name: $top
          value: "25"
          type: query
          description: Maximum number of results to return.
        - name: $skip
          value: "0"
          type: query
          description: Number of results to skip for pagination.
        - name: $filter
          value: ""
          type: query
          description: OData filter expression.
          disabled: true
    response:
      status: 429
      statusText: Too Many Requests
      headers:
        - name: Content-Type
          value: application/json
      body:
        type: json
        data: |-
          {
            "error": {
              "code": "TooManyRequests",
              "message": "Rate limit exceeded. Please retry after the number of seconds specified in the Retry-After header.",
              "innerError": {
                "requestId": "req-err-429-001",
                "date": "2025-09-10T12:00:00Z"
              }
            }
          }
  - name: Default
    request:
      url: "{{baseUrl}}/reports/copilot/usage/userDetail"
      method: GET
      params:
        - name: period
          value: D7
          type: query
        - name: period
          value: D30
          type: query
          disabled: true
        - name: period
          value: D90
          type: query
          disabled: true
        - name: period
          value: D180
          type: query
          disabled: true
        - name: $top
          value: "25"
          type: query
          description: Maximum number of results to return.
        - name: $skip
          value: "0"
          type: query
          description: Number of results to skip for pagination.
        - name: $filter
          value: ""
          type: query
          description: OData filter expression.
          disabled: true
    response:
      status: 500
      statusText: Internal Server Error
      headers:
        - name: Content-Type
          value: application/json
      body:
        type: json
        data: |-
          {
            "error": {
              "code": "InternalServerError",
              "message": "An unexpected error occurred while processing the request. Please try again later.",
              "innerError": {
                "requestId": "req-err-500-001",
                "date": "2025-09-10T12:00:00Z"
              }
            }
          }
