info:
  name: List Copilot interactions
  type: http
  seq: 1
  tags:
    - Interaction Exports

http:
  method: GET
  url: "{{baseUrl}}/copilot/interactions?$top=25&$skip=0&$filter=new&$orderby=name&startDateTime=2026-01-01&endDateTime=2026-01-01"
  params:
    - name: $top
      value: "25"
      type: query
      description: Maximum number of results to return.
    - name: $skip
      value: "0"
      type: query
      description: Number of results to skip for pagination.
    - name: $filter
      value: new
      type: query
      description: OData filter expression.
    - name: $orderby
      value: name
      type: query
      description: OData order-by expression.
    - name: startDateTime
      value: 2026-01-01
      type: query
      description: Start of the date/time range for interactions (ISO 8601).
    - name: endDateTime
      value: 2026-01-01
      type: query
      description: End of the date/time range for interactions (ISO 8601).
  auth: inherit

settings:
  encodeUrl: true
  timeout: 0
  followRedirects: true
  maxRedirects: 5

examples:
  - name: Default
    request:
      url: "{{baseUrl}}/copilot/interactions"
      method: GET
      params:
        - name: $top
          value: "25"
          type: query
          description: Maximum number of results to return.
        - name: $skip
          value: "0"
          type: query
          description: Number of results to skip for pagination.
        - name: $filter
          value: ""
          type: query
          description: OData filter expression.
          disabled: true
        - name: $orderby
          value: ""
          type: query
          description: OData order-by expression.
          disabled: true
        - name: startDateTime
          value: ""
          type: query
          description: Start of the date/time range for interactions (ISO 8601).
          disabled: true
        - name: endDateTime
          value: ""
          type: query
          description: End of the date/time range for interactions (ISO 8601).
          disabled: true
    response:
      status: 200
      statusText: OK
      headers:
        - name: Content-Type
          value: application/json
      body:
        type: json
        data: |-
          {
            "value": [
              {
                "id": "interaction-001",
                "createdDateTime": "2025-09-10T10:15:00Z",
                "userId": "user-abc-123",
                "userDisplayName": "Jane Doe",
                "appId": "Word",
                "interactionType": "prompt",
                "content": "Summarize the key points from the Q3 sales report.",
                "contextReferences": [
                  {
                    "type": "driveItem",
                    "id": "01ABCDEF11111111",
                    "name": "Q3-Sales-Report.docx",
                    "webUrl": "https://contoso.sharepoint.com/sites/sales/Q3-Sales-Report.docx"
                  }
                ]
              },
              {
                "id": "interaction-002",
                "createdDateTime": "2025-09-10T10:15:05Z",
                "userId": "user-abc-123",
                "userDisplayName": "Jane Doe",
                "appId": "Word",
                "interactionType": "response",
                "content": "The Q3 sales report highlights a 12% increase in revenue year-over-year driven by strong performance in the enterprise segment.",
                "contextReferences": []
              }
            ],
            "@odata.count": 2,
            "@odata.nextLink": "https://graph.microsoft.com/v1.0/copilot/interactions?$skip=2&$top=25"
          }
  - name: Default
    request:
      url: "{{baseUrl}}/copilot/interactions"
      method: GET
      params:
        - name: $top
          value: "25"
          type: query
          description: Maximum number of results to return.
        - name: $skip
          value: "0"
          type: query
          description: Number of results to skip for pagination.
        - name: $filter
          value: ""
          type: query
          description: OData filter expression.
          disabled: true
        - name: $orderby
          value: ""
          type: query
          description: OData order-by expression.
          disabled: true
        - name: startDateTime
          value: ""
          type: query
          description: Start of the date/time range for interactions (ISO 8601).
          disabled: true
        - name: endDateTime
          value: ""
          type: query
          description: End of the date/time range for interactions (ISO 8601).
          disabled: true
    response:
      status: 401
      statusText: Unauthorized
      headers:
        - name: Content-Type
          value: application/json
      body:
        type: json
        data: |-
          {
            "error": {
              "code": "Unauthorized",
              "message": "Authentication token is missing, expired, or invalid.",
              "innerError": {
                "requestId": "req-err-401-001",
                "date": "2025-09-10T12:00:00Z"
              }
            }
          }
  - name: Default
    request:
      url: "{{baseUrl}}/copilot/interactions"
      method: GET
      params:
        - name: $top
          value: "25"
          type: query
          description: Maximum number of results to return.
        - name: $skip
          value: "0"
          type: query
          description: Number of results to skip for pagination.
        - name: $filter
          value: ""
          type: query
          description: OData filter expression.
          disabled: true
        - name: $orderby
          value: ""
          type: query
          description: OData order-by expression.
          disabled: true
        - name: startDateTime
          value: ""
          type: query
          description: Start of the date/time range for interactions (ISO 8601).
          disabled: true
        - name: endDateTime
          value: ""
          type: query
          description: End of the date/time range for interactions (ISO 8601).
          disabled: true
    response:
      status: 403
      statusText: Forbidden
      headers:
        - name: Content-Type
          value: application/json
      body:
        type: json
        data: |-
          {
            "error": {
              "code": "Forbidden",
              "message": "Insufficient privileges to complete the operation. Verify the required permissions are granted.",
              "innerError": {
                "requestId": "req-err-403-001",
                "date": "2025-09-10T12:00:00Z"
              }
            }
          }
  - name: Default
    request:
      url: "{{baseUrl}}/copilot/interactions"
      method: GET
      params:
        - name: $top
          value: "25"
          type: query
          description: Maximum number of results to return.
        - name: $skip
          value: "0"
          type: query
          description: Number of results to skip for pagination.
        - name: $filter
          value: ""
          type: query
          description: OData filter expression.
          disabled: true
        - name: $orderby
          value: ""
          type: query
          description: OData order-by expression.
          disabled: true
        - name: startDateTime
          value: ""
          type: query
          description: Start of the date/time range for interactions (ISO 8601).
          disabled: true
        - name: endDateTime
          value: ""
          type: query
          description: End of the date/time range for interactions (ISO 8601).
          disabled: true
    response:
      status: 429
      statusText: Too Many Requests
      headers:
        - name: Content-Type
          value: application/json
      body:
        type: json
        data: |-
          {
            "error": {
              "code": "TooManyRequests",
              "message": "Rate limit exceeded. Please retry after the number of seconds specified in the Retry-After header.",
              "innerError": {
                "requestId": "req-err-429-001",
                "date": "2025-09-10T12:00:00Z"
              }
            }
          }
  - name: Default
    request:
      url: "{{baseUrl}}/copilot/interactions"
      method: GET
      params:
        - name: $top
          value: "25"
          type: query
          description: Maximum number of results to return.
        - name: $skip
          value: "0"
          type: query
          description: Number of results to skip for pagination.
        - name: $filter
          value: ""
          type: query
          description: OData filter expression.
          disabled: true
        - name: $orderby
          value: ""
          type: query
          description: OData order-by expression.
          disabled: true
        - name: startDateTime
          value: ""
          type: query
          description: Start of the date/time range for interactions (ISO 8601).
          disabled: true
        - name: endDateTime
          value: ""
          type: query
          description: End of the date/time range for interactions (ISO 8601).
          disabled: true
    response:
      status: 500
      statusText: Internal Server Error
      headers:
        - name: Content-Type
          value: application/json
      body:
        type: json
        data: |-
          {
            "error": {
              "code": "InternalServerError",
              "message": "An unexpected error occurred while processing the request. Please try again later.",
              "innerError": {
                "requestId": "req-err-500-001",
                "date": "2025-09-10T12:00:00Z"
              }
            }
          }
